{
  "books": [
    {
      "bookName": "book1",
      "sheets": [
        {
          "sheetName": "default",
          "sheetID": 1,
          "cells": {
            "A3": {
              "name": "A3",
              "content": {
                "formatsOfContent": [],
                "formulaRepresentation": "\u003d 4+-2",
                "contentType": "default"
              }
            }
          },
          "maxRow": 3,
          "maxCol": "A"
        },
        {
          "sheetName": "sheet1",
          "sheetID": 2,
          "cells": {
            "A3": {
              "name": "A3",
              "content": {
                "formatsOfContent": [],
                "formulaRepresentation": "\u003d 2+!default.A3",
                "contentType": "default"
              }
            }
          },
          "maxRow": 3,
          "maxCol": "A"
        }
      ]
    }
  ]
}